// Jest Snapshot v1, https://goo.gl/fbAQLP

exports[`Set time command builder Produces the correct output 1`] = `
Object {
  "data": Array [
    232,
    3,
    0,
    0,
    205,
    7,
    0,
    0,
    12,
    0,
    0,
    0,
    31,
    0,
    0,
    0,
    16,
    0,
    0,
    0,
    0,
    0,
    0,
    0,
    0,
    0,
    0,
    0,
    0,
    0,
    0,
    0,
  ],
  "type": "Buffer",
}
`;
